{
  "license": "<p>Copyright ©2012-2023, Libriciel SCOP. Initié et développé par Libriciel SCOP</p><p>iparapheur est un logiciel libre ; vous pouvez le redistribuer ou le modifier suivant les termes de la <a href=\"https://www.gnu.org/licenses/agpl-3.0.fr.html\" target=\"_blank\">Licence Générale Publique GNU Affero</a> telle que publiée par la Free Software Foundation : soit la version 3 de cette licence, soit (à votre gré) toute version ultérieure.</p><p>iparapheur est distribué dans l’espoir qu’il vous sera utile, mais SANS AUCUNE GARANTIE : sans même la garantie implicite de COMMERCIALISABILITÉ ni d’ADÉQUATION À UN OBJECTIF PARTICULIER. Consultez la <a href=\"https://www.gnu.org/licenses/agpl-3.0.fr.html\" target=\"_blank\">Licence Générale Publique GNU Affero</a> pour plus de détails.</p>"
}
